[gd_scene load_steps=4 format=2]

[ext_resource path="res://art/icon.png" type="Texture" id=1]
[ext_resource path="res://classes/ranged/Projectile.gd" type="Script" id=2]

[sub_resource type="RectangleShape2D" id=1]
extents = Vector2( 13.1443, 13.545 )

[node name="Node2D" type="Node2D"]
script = ExtResource( 2 )

[node name="Sprite" type="Sprite" parent="."]
scale = Vector2( 0.414491, 0.414491 )
texture = ExtResource( 1 )

[node name="Area2D" type="Area2D" parent="."]
collision_layer = 0
collision_mask = 2

[node name="CollisionShape2D" type="CollisionShape2D" parent="Area2D"]
shape = SubResource( 1 )

[node name="Timer" type="Timer" parent="."]
wait_time = 0.5
one_shot = true
autostart = true
[connection signal="area_entered" from="Area2D" to="." method="_on_attack"]
[connection signal="timeout" from="Timer" to="." method="_life_out"]
