[gd_scene load_steps=4 format=2]

[ext_resource path="res://towers/arrow/Projectile.gd" type="Script" id=1]
[ext_resource path="res://art/the_prize.png" type="Texture" id=2]

[sub_resource type="RectangleShape2D" id=1]
extents = Vector2( 5.5312, 6.75573 )

[node name="Node2D" type="Node2D"]
script = ExtResource( 1 )

[node name="Sprite" type="Sprite" parent="."]
scale = Vector2( 0.00383466, 0.00383466 )
texture = ExtResource( 2 )

[node name="Area2D" type="Area2D" parent="."]
collision_layer = 0
collision_mask = 2

[node name="CollisionShape2D" type="CollisionShape2D" parent="Area2D"]
shape = SubResource( 1 )

[node name="Timer" type="Timer" parent="."]
wait_time = 0.3
autostart = true
[connection signal="area_entered" from="Area2D" to="." method="_on_impact"]
[connection signal="timeout" from="Timer" to="." method="_exit_range"]
