[gd_scene load_steps=4 format=2]

[ext_resource path="res://art/under_health.png" type="Texture" id=1]
[ext_resource path="res://towers/gluetrap/GlueTrap.gd" type="Script" id=2]

[sub_resource type="RectangleShape2D" id=1]
extents = Vector2( 48, 48 )

[node name="Node2D" type="Node2D"]
script = ExtResource( 2 )

[node name="Sprite" type="Sprite" parent="."]
position = Vector2( 0.157482, 3.8147e-06 )
scale = Vector2( 0.203612, 1.61191 )
texture = ExtResource( 1 )

[node name="StaticBody2D" type="StaticBody2D" parent="."]
collision_mask = 0

[node name="CollisionShape2D" type="CollisionShape2D" parent="StaticBody2D"]
shape = SubResource( 1 )

[node name="Timer" type="Timer" parent="."]
autostart = true
[connection signal="timeout" from="Timer" to="." method="_fire"]
