[gd_scene load_steps=5 format=2]

[ext_resource path="res://towers/arrow/Projectile.gd" type="Script" id=1]
[ext_resource path="res://art/Arrow.png" type="Texture" id=2]
[ext_resource path="res://scenes/TestableTimer.tscn" type="PackedScene" id=3]

[sub_resource type="RectangleShape2D" id=1]
extents = Vector2( 5.75747, 13.9202 )

[node name="Node2D" type="Node2D"]
script = ExtResource( 1 )

[node name="Sprite" type="Sprite" parent="."]
position = Vector2( -0.0220966, 1.5247 )
scale = Vector2( 5.56711, 5.56711 )
texture = ExtResource( 2 )

[node name="Area2D" type="Area2D" parent="."]
collision_layer = 0
collision_mask = 2

[node name="CollisionShape2D" type="CollisionShape2D" parent="Area2D"]
position = Vector2( 0.0480556, -1.28208 )
shape = SubResource( 1 )

[node name="Timer" parent="." instance=ExtResource( 3 )]
[connection signal="area_entered" from="Area2D" to="." method="_on_impact"]
[connection signal="timeout" from="Timer" to="." method="_exit_range"]
