[gd_scene load_steps=4 format=2]

[ext_resource path="res://art/door.png" type="Texture" id=1]
[ext_resource path="res://scripts/GridDoor.gd" type="Script" id=2]

[sub_resource type="RectangleShape2D" id=1]
extents = Vector2( 200, 20 )

[node name="StaticBody2D" type="StaticBody2D"]
input_pickable = true
collision_layer = 17
script = ExtResource( 2 )

[node name="CollisionShape2D" type="CollisionShape2D" parent="."]
shape = SubResource( 1 )

[node name="Sprite" type="Sprite" parent="."]
position = Vector2( 0, -3.05176e-05 )
texture = ExtResource( 1 )
