[gd_scene load_steps=3 format=2]

[ext_resource path="res://scripts/GridWorld.gd" type="Script" id=1]
[ext_resource path="res://scenes/GridDoor.tscn" type="PackedScene" id=2]

[node name="Node" type="Node"]
script = ExtResource( 1 )

[node name="StaticBody2D" parent="." instance=ExtResource( 2 )]
