[gd_scene load_steps=5 format=2]

[ext_resource path="res://art/icon.png" type="Texture" id=1]
[ext_resource path="res://scripts/Mover.gd" type="Script" id=2]

[sub_resource type="RectangleShape2D" id=1]
extents = Vector2( 31.5893, 31.2812 )

[sub_resource type="RectangleShape2D" id=2]
extents = Vector2( 40, 40 )

[node name="Player" type="KinematicBody2D"]
collision_layer = 5
script = ExtResource( 2 )

[node name="Sprite" type="Sprite" parent="."]
position = Vector2( -0.189293, -0.668839 )
texture = ExtResource( 1 )

[node name="Camera2D" type="Camera2D" parent="Sprite"]
current = true
zoom = Vector2( 1.5, 1.5 )

[node name="CollisionShape2D" type="CollisionShape2D" parent="."]
position = Vector2( -0.246655, -1.65367 )
shape = SubResource( 1 )

[node name="Area2D" type="Area2D" parent="."]
collision_layer = 0
collision_mask = 16

[node name="CollisionShape2D" type="CollisionShape2D" parent="Area2D"]
shape = SubResource( 2 )

[node name="Control" type="Control" parent="."]
margin_left = -32.0
margin_top = -32.0
margin_right = 32.0
margin_bottom = 32.0
__meta__ = {
"_edit_use_anchors_": false
}
[connection signal="body_entered" from="Area2D" to="." method="selectDoor"]
[connection signal="body_exited" from="Area2D" to="." method="leaveDoor"]
[connection signal="gui_input" from="Control" to="." method="upgradeUI"]
